4 Quadvariate Viz – COMP/STAT112 Notebook
…
                                       yn_over_migr
 Lost population through overseas migration  :  0  
 Gained population through overseas migration:331  

                           yn_net_busi 
 Lost more businesses than gained:  0  
 Gained more businesses than lost:331  

Code
aussie_data

# A tibble: 331 × 23
   Region total_pop reg_births fert_rate reg_deaths net_inter_migr net_over_migr
   <chr>      <dbl>      <dbl>     <dbl>      <dbl>          <dbl>         <dbl>
 1 Gosfo…    178868       1878      1.87       1788          -1364           805
 2 Wyong     170290       2152      2.05       1847             25           463
 3 Baulk…    155374       1181      1.36       1029          -1503          1347
 4 Dural…     28008        204      1.66        216           -129           126
 5 Hawke…     25130        292      2.11        128           -289            49
 6 Rouse…     62992        858      1.85        158           5012           271
 7 Black…    143628       1969      1.83        954          -2621          1543
 8 Black…    155305       2369      1.84        380           8403          1060
 9 Mount…    116243       1781      2.1         787          -2369           855
10 Botany     60892        846      1.41        314            169           895
# ℹ 321 more rows
# ℹ 16 more variables: total_busi <dbl>, total_busi_entr <dbl>,
#   total_busi_exits <dbl>, net_pop <dbl>, net_migr <dbl>, net_busi <dbl>,
#   pct_inter_migr <dbl>, pct_over_migr <dbl>, pct_migr <dbl>, pct_pop <dbl>,
#   pct_busi <dbl>, yn_fert_rate <fct>, yn_net_migr <fct>, yn_inter_migr <fct>,
#   yn_over_migr <fct>, yn_net_busi <fct>
…
