7 Exam 2 – COMP/STAT112 Notebook
…
Code
head(fc, 22)

# A tibble: 22 × 4
   country   food_category            consumption co2_emmission
   <chr>     <chr>                          <dbl>         <dbl>
 1 Argentina Pork                           10.5          37.2 
 2 Argentina Poultry                        38.7          41.5 
 3 Argentina Beef                           55.5        1712   
 4 Argentina Lamb & Goat                     1.56         54.6 
 5 Argentina Fish                            4.36          6.96
 6 Argentina Eggs                           11.4          10.5 
 7 Argentina Milk - inc. cheese            195.          278.  
 8 Argentina Wheat and Wheat Products      103.           19.7 
 9 Argentina Rice                            8.77         11.2 
10 Argentina Soybeans                        0             0   
# ℹ 12 more rows
…
temp

# A tibble: 1,430 × 3
# Groups:   food_category [11]
   country   food_category consumption
   <fct>     <fct>               <dbl>
 1 Argentina Pork               -0.357
 2 Argentina Poultry             1.20 
 3 Argentina Beef                4.49 
 4 Argentina Lamb               -0.284
 5 Argentina Fish               -0.680
 6 Argentina Eggs                0.641
 7 Argentina Dairy               0.743
 8 Argentina Wheat               0.714
 9 Argentina Rice               -0.552
10 Argentina Soybeans           -0.413
# ℹ 1,420 more rows
…
