15 strings – COMP/STAT112 Notebook
…
Exercise 3: Courses by department

Using courses_clean…

# Identify the 6 departments that offered the most sections
courses_clean |>
  group_by(dept) |>
  count(dept) |>
  arrange(desc(n))

# A tibble: 40 × 2
# Groups:   dept [40]
   dept      n
   <chr> <int>
 1 SPAN     45
 2 BIOL     44
 3 ENVI     38
 4 PSYC     37
 5 CHEM     33
 6 COMP     31
 7 ENGL     30
 8 ECON     29
 9 POLI     27
10 FREN     26
# ℹ 30 more rows

# Identify the 6 departments with the longest average course titles
courses_clean |>
  mutate(title_length = str_length(name)) |>
  group_by(dept) |>
  summarise(average_title_length = mean(title_length)) |>
  arrange(desc(average_title_length))

# A tibble: 40 × 2
   dept  average_title_length
   <chr>                <dbl>
 1 WGSS                  46.3
 2 INTL                  41.4
 3 EDUC                  39.4
 4 MCST                  39.4
 5 POLI                  37.4
 6 AMST                  37.3
 7 ASIA                  36.8
 8 SOCI                  36.2
 9 ENGL                  35.7
10 LATI                  34.4
# ℹ 30 more rows
…
