19 dates – COMP/STAT112 Notebook
…
Build your code line by line. It’s important to understand what’s being piped into each function!

Ask what you can rearrange and still get the same result.

Read your final code like a paragraph / a conversation. Would another person be able to follow your logic?

Code
# Sort Gentoo penguins from biggest to smallest with respect to their 
# bill length in cm (there are 10 mm in a cm)
penguins |>
  mutate(bill_length_cm = bill_length_mm / 10) |>
  filter(species == "Gentoo") |>
  arrange(desc(bill_length_cm))

# A tibble: 124 × 9
   species island bill_length_mm bill_depth_mm flipper_length_mm body_mass_g
   <chr>   <chr>           <dbl>         <dbl>             <dbl>       <dbl>
 1 Gentoo  Biscoe           59.6          17                 230        6050
 2 Gentoo  Biscoe           55.9          17                 228        5600
 3 Gentoo  Biscoe           55.1          16                 230        5850
 4 Gentoo  Biscoe           54.3          15.7               231        5650
 5 Gentoo  Biscoe           53.4          15.8               219        5500
 6 Gentoo  Biscoe           52.5          15.6               221        5450
 7 Gentoo  Biscoe           52.2          17.1               228        5400
 8 Gentoo  Biscoe           52.1          17                 230        5550
 9 Gentoo  Biscoe           51.5          16.3               230        5500
10 Gentoo  Biscoe           51.3          14.2               218        5300
# ℹ 114 more rows
# ℹ 3 more variables: sex <chr>, year <dbl>, bill_length_cm <dbl>
…
Code
# First: recall the variable names
names(penguins)

[1] "species"           "island"            "bill_length_mm"   
[4] "bill_depth_mm"     "flipper_length_mm" "body_mass_g"      
[7] "sex"               "year"             

Code
# Use a shortcut to keep everything but the year and island variables
penguins |>
  select(-island, -year)

# A tibble: 344 × 6
   species bill_length_mm bill_depth_mm flipper_length_mm body_mass_g sex   
   <chr>            <dbl>         <dbl>             <dbl>       <dbl> <chr> 
 1 Adelie            39.1          18.7               181        3750 male  
 2 Adelie            39.5          17.4               186        3800 female
 3 Adelie            40.3          18                 195        3250 female
 4 Adelie            NA            NA                  NA          NA <NA>  
 5 Adelie            36.7          19.3               193        3450 female
 6 Adelie            39.3          20.6               190        3650 male  
 7 Adelie            38.9          17.8               181        3625 female
 8 Adelie            39.2          19.6               195        4675 male  
 9 Adelie            34.1          18.1               193        3475 <NA>  
10 Adelie            42            20.2               190        4250 <NA>  
# ℹ 334 more rows

Code
# Use a shortcut to keep only species and the penguin characteristics measured in mm
penguins |>
  select(species, contains("mm"))

# A tibble: 344 × 4
   species bill_length_mm bill_depth_mm flipper_length_mm
   <chr>            <dbl>         <dbl>             <dbl>
 1 Adelie            39.1          18.7               181
 2 Adelie            39.5          17.4               186
 3 Adelie            40.3          18                 195
 4 Adelie            NA            NA                  NA
 5 Adelie            36.7          19.3               193
 6 Adelie            39.3          20.6               190
 7 Adelie            38.9          17.8               181
 8 Adelie            39.2          19.6               195
 9 Adelie            34.1          18.1               193
10 Adelie            42            20.2               190
# ℹ 334 more rows

Code
# Use a shortcut to keep only species and bill-related measurements
penguins |>
  select(species, contains("bill"))

# A tibble: 344 × 3
   species bill_length_mm bill_depth_mm
   <chr>            <dbl>         <dbl>
 1 Adelie            39.1          18.7
 2 Adelie            39.5          17.4
 3 Adelie            40.3          18  
 4 Adelie            NA            NA  
 5 Adelie            36.7          19.3
 6 Adelie            39.3          20.6
 7 Adelie            38.9          17.8
 8 Adelie            39.2          19.6
 9 Adelie            34.1          18.1
10 Adelie            42            20.2
# ℹ 334 more rows

Code
# Use a shortcut to keep only species and the length-related characteristics
penguins |>
  select(species, contains("length"))

# A tibble: 344 × 3
   species bill_length_mm flipper_length_mm
   <chr>            <dbl>             <dbl>
 1 Adelie            39.1               181
 2 Adelie            39.5               186
 3 Adelie            40.3               195
 4 Adelie            NA                  NA
 5 Adelie            36.7               193
 6 Adelie            39.3               190
 7 Adelie            38.9               181
 8 Adelie            39.2               195
 9 Adelie            34.1               193
10 Adelie            42                 190
# ℹ 334 more rows

Exercise 3: Arranging, Counting, & Grouping by Multiple Variables

We’ve done examples where we need to filter() by more than one variable, or select() more than one variable. Use your intuition for how we can arrange(), count(), and group_by() more than one variable.

Code
# Change this code to sort the penguins by species, and then island name
# NOTE: The first row should be an Adelie penguin living on Biscoe island
penguins |> 
  arrange(species) |>
  arrange(island)

# A tibble: 344 × 8
   species island bill_length_mm bill_depth_mm flipper_length_mm body_mass_g
   <chr>   <chr>           <dbl>         <dbl>             <dbl>       <dbl>
 1 Adelie  Biscoe           37.8          18.3               174        3400
 2 Adelie  Biscoe           37.7          18.7               180        3600
 3 Adelie  Biscoe           35.9          19.2               189        3800
 4 Adelie  Biscoe           38.2          18.1               185        3950
 5 Adelie  Biscoe           38.8          17.2               180        3800
 6 Adelie  Biscoe           35.3          18.9               187        3800
 7 Adelie  Biscoe           40.6          18.6               183        3550
 8 Adelie  Biscoe           40.5          17.9               187        3200
 9 Adelie  Biscoe           37.9          18.6               172        3150
10 Adelie  Biscoe           40.5          18.9               180        3950
# ℹ 334 more rows
# ℹ 2 more variables: sex <chr>, year <dbl>
…
Birthdays gives the number of births recorded on each day of the year in each state from 1969 to 19881. We can use our wrangling skills to understand some drivers of daily births. Putting these all together can be challenging! Remember the following ways to make tasks more manageable:

Translate the prompt into our 6 verbs (and count()). That is, think before you type.

Build your code line by line. It’s important to understand what’s being piped into each function!

Exercise 5: Warming up

Code
# How many days of data do we have for each state?
Birthdays |>
  group_by(state) |>
  count()

# A tibble: 51 × 2
# Groups:   state [51]
   state     n
   <chr> <int>
 1 AK     7306
 2 AL     7312
 3 AR     7310
 4 AZ     7310
 5 CA     7325
 6 CO     7305
 7 CT     7312
 8 DC     7311
 9 DE     7307
10 FL     7307
# ℹ 41 more rows
Code
# How many total births were there in this time period?
Birthdays |>
  summarise(sum(births))

  sum(births)
1    70486538

Code
# How many total births were there per state in this time period, sorted from low to high?
Birthdays |>
  group_by(state) |>
  summarise(sum(births))

# A tibble: 51 × 2
   state `sum(births)`
   <chr>         <int>
 1 AK           185385
 2 AL          1206772
 3 AR           684220
 4 AZ           947234
 5 CA          7822785
 6 CO           946378
 7 CT           824338
 8 DC           425469
 9 DE           188705
10 FL          2624301
# ℹ 41 more rows
…
Part b

Make a table showing the five states with the most births between September 9, 1979 and September 12, 1979, including the 9th and 12th. Arrange the table in descending order of births.

Code
Birthdays |>
  filter(year == 1979, month == 9, day >= 9,day <= 12) |>
  arrange(desc(births)) |>
  group_by(state) |>
  summarize(total_births = sum(births)) |>
  arrange(desc(total_births))

# A tibble: 51 × 2
   state total_births
   <chr>        <int>
 1 CA            4422
 2 TX            3151
 3 NY            2621
 4 IL            2235
 5 OH            1938
 6 PA            1830
 7 MI            1651
 8 FL            1406
 9 GA            1138
10 NJ            1073
# ℹ 41 more rows
…
Example 2: Multiple Verbs

Code
# Sort Gentoo penguins from biggest to smallest with respect to their 
# bill length in cm (there are 10 mm in a cm)
penguins |> 
  filter(species == "Gentoo") |> 
  mutate(bill_length_cm = bill_length_mm / 10) |> 
  arrange(desc(bill_length_cm))

# A tibble: 124 × 9
   species island bill_length_mm bill_depth_mm flipper_length_mm body_mass_g
   <chr>   <chr>           <dbl>         <dbl>             <dbl>       <dbl>
 1 Gentoo  Biscoe           59.6          17                 230        6050
 2 Gentoo  Biscoe           55.9          17                 228        5600
 3 Gentoo  Biscoe           55.1          16                 230        5850
 4 Gentoo  Biscoe           54.3          15.7               231        5650
 5 Gentoo  Biscoe           53.4          15.8               219        5500
 6 Gentoo  Biscoe           52.5          15.6               221        5450
 7 Gentoo  Biscoe           52.2          17.1               228        5400
 8 Gentoo  Biscoe           52.1          17                 230        5550
 9 Gentoo  Biscoe           51.5          16.3               230        5500
10 Gentoo  Biscoe           51.3          14.2               218        5300
# ℹ 114 more rows
# ℹ 3 more variables: sex <chr>, year <dbl>, bill_length_cm <dbl>
…
Code
# First: recall the variable names
names(penguins)

[1] "species"           "island"            "bill_length_mm"   
[4] "bill_depth_mm"     "flipper_length_mm" "body_mass_g"      
[7] "sex"               "year"             

Code
# Use a shortcut to keep everything but the year and island variables
penguins |> 
  select(-year, -island)

# A tibble: 344 × 6
   species bill_length_mm bill_depth_mm flipper_length_mm body_mass_g sex   
   <chr>            <dbl>         <dbl>             <dbl>       <dbl> <chr> 
 1 Adelie            39.1          18.7               181        3750 male  
 2 Adelie            39.5          17.4               186        3800 female
 3 Adelie            40.3          18                 195        3250 female
 4 Adelie            NA            NA                  NA          NA <NA>  
 5 Adelie            36.7          19.3               193        3450 female
 6 Adelie            39.3          20.6               190        3650 male  
 7 Adelie            38.9          17.8               181        3625 female
 8 Adelie            39.2          19.6               195        4675 male  
 9 Adelie            34.1          18.1               193        3475 <NA>  
10 Adelie            42            20.2               190        4250 <NA>  
# ℹ 334 more rows

Code
# Use a shortcut to keep only species and the penguin characteristics measured in mm
penguins |> 
  select(species, ends_with("mm"))

# A tibble: 344 × 4
   species bill_length_mm bill_depth_mm flipper_length_mm
   <chr>            <dbl>         <dbl>             <dbl>
 1 Adelie            39.1          18.7               181
 2 Adelie            39.5          17.4               186
 3 Adelie            40.3          18                 195
 4 Adelie            NA            NA                  NA
 5 Adelie            36.7          19.3               193
 6 Adelie            39.3          20.6               190
 7 Adelie            38.9          17.8               181
 8 Adelie            39.2          19.6               195
 9 Adelie            34.1          18.1               193
10 Adelie            42            20.2               190
# ℹ 334 more rows

Code
# Use a shortcut to keep only species and bill-related measurements
penguins |> 
  select(species, starts_with("bill"))

# A tibble: 344 × 3
   species bill_length_mm bill_depth_mm
   <chr>            <dbl>         <dbl>
 1 Adelie            39.1          18.7
 2 Adelie            39.5          17.4
 3 Adelie            40.3          18  
 4 Adelie            NA            NA  
 5 Adelie            36.7          19.3
 6 Adelie            39.3          20.6
 7 Adelie            38.9          17.8
 8 Adelie            39.2          19.6
 9 Adelie            34.1          18.1
10 Adelie            42            20.2
# ℹ 334 more rows

Code
# Use a shortcut to keep only species and the length-related characteristics
penguins |> 
  select(species, contains("length"))

# A tibble: 344 × 3
   species bill_length_mm flipper_length_mm
   <chr>            <dbl>             <dbl>
 1 Adelie            39.1               181
 2 Adelie            39.5               186
 3 Adelie            40.3               195
 4 Adelie            NA                  NA
 5 Adelie            36.7               193
 6 Adelie            39.3               190
 7 Adelie            38.9               181
 8 Adelie            39.2               195
 9 Adelie            34.1               193
10 Adelie            42                 190
# ℹ 334 more rows
…
