14 joining – COMP/STAT112 Notebook
…
Joining with `by = join_by(sessionID)`

Warning in left_join(left_join(courses_combined, courses, join_by(sessionID == : Detected an unexpected many-to-many relationship between `x` and `y`.
ℹ Row 57 of `x` matches multiple rows in `y`.
ℹ Row 1931 of `y` matches multiple rows in `x`.
ℹ If a many-to-many relationship is expected, set `relationship =
  "many-to-many"` to silence this warning.

# A tibble: 40 × 2
   dept  total_in_dept
   <chr>         <int>
 1 d             15526
 2 m             11918
 3 j             10198
 4 M              9503
 5 G              8733
 6 F              8357
 7 W              7629
 8 D              7535
 9 O              6327
10 C              6045
# ℹ 30 more rows

Part b

What’s the grade-point average (GPA) for each student?

Code
grades |>
  left_join(gpa_conversion) |>
  group_by(sid) |>
  summarize(gpa = mean(gp))

Joining with `by = join_by(grade)`

# A tibble: 443 × 2
   sid      gpa
   <chr>  <dbl>
 1 S31185  2.41
 2 S31188 NA   
 3 S31191 NA   
 4 S31194  3.36
 5 S31197  3.35
 6 S31200  2.2 
 7 S31203  3.82
 8 S31206  2.46
 9 S31209 NA   
10 S31212  3.67
# ℹ 433 more rows
…
Joining with `by = join_by(sessionID)`

Warning in left_join(grades, courses): Detected an unexpected many-to-many relationship between `x` and `y`.
ℹ Row 64 of `x` matches multiple rows in `y`.
ℹ Row 807 of `y` matches multiple rows in `x`.
ℹ If a many-to-many relationship is expected, set `relationship =
  "many-to-many"` to silence this warning.

Joining with `by = join_by(grade)`

# A tibble: 364 × 2
   iid     grade_point_average
   <chr>                 <dbl>
 1 inst265                1.3 
 2 inst444                1.7 
 3 inst513                1.85
 4 inst200                2   
 5 inst507                2.2 
 6 inst445                2.3 
 7 inst420                2.6 
 8 inst262                2.65
 9 inst176                2.66
10 inst234                2.7 
# ℹ 354 more rows
…
